<svg width="415" height="409" viewBox="0 0 415 409" fill="none" xmlns="http://www.w3.org/2000/svg">
<rect width="415" height="409" fill="white"/>
<circle cx="207" cy="206" r="190" fill="#3261A8"/>
<path d="M207 37.618L211.464 51.3561L211.576 51.7016H211.939H226.384L214.698 60.1922L214.404 60.4058L214.516 60.7513L218.98 74.4894L207.294 65.9987L207 65.7852L206.706 65.9987L195.02 74.4894L199.484 60.7513L199.596 60.4058L199.302 60.1922L187.616 51.7016H202.061H202.424L202.536 51.3561L207 37.618Z" fill="#8A2E39"/>
<path d="M207 37.618L211.464 51.3561L211.576 51.7016H211.939H226.384L214.698 60.1922L214.404 60.4058L214.516 60.7513L218.98 74.4894L207.294 65.9987L207 65.7852L206.706 65.9987L195.02 74.4894L199.484 60.7513L199.596 60.4058L199.302 60.1922L187.616 51.7016H202.061H202.424L202.536 51.3561L207 37.618Z" stroke="#92BDFD"/>
<path d="M207 37.618L211.464 51.3561L211.576 51.7016H211.939H226.384L214.698 60.1922L214.404 60.4058L214.516 60.7513L218.98 74.4894L207.294 65.9987L207 65.7852L206.706 65.9987L195.02 74.4894L199.484 60.7513L199.596 60.4058L199.302 60.1922L187.616 51.7016H202.061H202.424L202.536 51.3561L207 37.618Z" stroke="#92BDFD"/>
<path d="M207 37.618L211.464 51.3561L211.576 51.7016H211.939H226.384L214.698 60.1922L214.404 60.4058L214.516 60.7513L218.98 74.4894L207.294 65.9987L207 65.7852L206.706 65.9987L195.02 74.4894L199.484 60.7513L199.596 60.4058L199.302 60.1922L187.616 51.7016H202.061H202.424L202.536 51.3561L207 37.618Z" stroke="#92BDFD"/>
<path d="M207 37.618L211.464 51.3561L211.576 51.7016H211.939H226.384L214.698 60.1922L214.404 60.4058L214.516 60.7513L218.98 74.4894L207.294 65.9987L207 65.7852L206.706 65.9987L195.02 74.4894L199.484 60.7513L199.596 60.4058L199.302 60.1922L187.616 51.7016H202.061H202.424L202.536 51.3561L207 37.618Z" stroke="#92BDFD"/>
<path d="M132 311.618L136.464 325.356L136.576 325.702H136.939H151.384L139.698 334.192L139.404 334.406L139.516 334.751L143.98 348.489L132.294 339.999L132 339.785L131.706 339.999L120.02 348.489L124.484 334.751L124.596 334.406L124.302 334.192L112.616 325.702H127.061H127.424L127.536 325.356L132 311.618Z" fill="#8A2E39"/>
<path d="M132 311.618L136.464 325.356L136.576 325.702H136.939H151.384L139.698 334.192L139.404 334.406L139.516 334.751L143.98 348.489L132.294 339.999L132 339.785L131.706 339.999L120.02 348.489L124.484 334.751L124.596 334.406L124.302 334.192L112.616 325.702H127.061H127.424L127.536 325.356L132 311.618Z" stroke="#92BDFD"/>
<path d="M132 311.618L136.464 325.356L136.576 325.702H136.939H151.384L139.698 334.192L139.404 334.406L139.516 334.751L143.98 348.489L132.294 339.999L132 339.785L131.706 339.999L120.02 348.489L124.484 334.751L124.596 334.406L124.302 334.192L112.616 325.702H127.061H127.424L127.536 325.356L132 311.618Z" stroke="#92BDFD"/>
<path d="M132 311.618L136.464 325.356L136.576 325.702H136.939H151.384L139.698 334.192L139.404 334.406L139.516 334.751L143.98 348.489L132.294 339.999L132 339.785L131.706 339.999L120.02 348.489L124.484 334.751L124.596 334.406L124.302 334.192L112.616 325.702H127.061H127.424L127.536 325.356L132 311.618Z" stroke="#92BDFD"/>
<path d="M132 311.618L136.464 325.356L136.576 325.702H136.939H151.384L139.698 334.192L139.404 334.406L139.516 334.751L143.98 348.489L132.294 339.999L132 339.785L131.706 339.999L120.02 348.489L124.484 334.751L124.596 334.406L124.302 334.192L112.616 325.702H127.061H127.424L127.536 325.356L132 311.618Z" stroke="#92BDFD"/>
<path d="M86 260.618L90.4638 274.356L90.576 274.702H90.9393H105.384L93.6981 283.192L93.4042 283.406L93.5164 283.751L97.9802 297.489L86.2939 288.999L86 288.785L85.7061 288.999L74.0198 297.489L78.4836 283.751L78.5958 283.406L78.3019 283.192L66.6156 274.702H81.0607H81.424L81.5362 274.356L86 260.618Z" fill="#8A2E39"/>
<path d="M86 260.618L90.4638 274.356L90.576 274.702H90.9393H105.384L93.6981 283.192L93.4042 283.406L93.5164 283.751L97.9802 297.489L86.2939 288.999L86 288.785L85.7061 288.999L74.0198 297.489L78.4836 283.751L78.5958 283.406L78.3019 283.192L66.6156 274.702H81.0607H81.424L81.5362 274.356L86 260.618Z" stroke="#92BDFD"/>
<path d="M86 260.618L90.4638 274.356L90.576 274.702H90.9393H105.384L93.6981 283.192L93.4042 283.406L93.5164 283.751L97.9802 297.489L86.2939 288.999L86 288.785L85.7061 288.999L74.0198 297.489L78.4836 283.751L78.5958 283.406L78.3019 283.192L66.6156 274.702H81.0607H81.424L81.5362 274.356L86 260.618Z" stroke="#92BDFD"/>
<path d="M86 260.618L90.4638 274.356L90.576 274.702H90.9393H105.384L93.6981 283.192L93.4042 283.406L93.5164 283.751L97.9802 297.489L86.2939 288.999L86 288.785L85.7061 288.999L74.0198 297.489L78.4836 283.751L78.5958 283.406L78.3019 283.192L66.6156 274.702H81.0607H81.424L81.5362 274.356L86 260.618Z" stroke="#92BDFD"/>
<path d="M86 260.618L90.4638 274.356L90.576 274.702H90.9393H105.384L93.6981 283.192L93.4042 283.406L93.5164 283.751L97.9802 297.489L86.2939 288.999L86 288.785L85.7061 288.999L74.0198 297.489L78.4836 283.751L78.5958 283.406L78.3019 283.192L66.6156 274.702H81.0607H81.424L81.5362 274.356L86 260.618Z" stroke="#92BDFD"/>
<path d="M86 119.618L90.4638 133.356L90.576 133.702H90.9393H105.384L93.6981 142.192L93.4042 142.406L93.5164 142.751L97.9802 156.489L86.2939 147.999L86 147.785L85.7061 147.999L74.0198 156.489L78.4836 142.751L78.5958 142.406L78.3019 142.192L66.6156 133.702H81.0607H81.424L81.5362 133.356L86 119.618Z" fill="#8A2E39"/>
<path d="M86 119.618L90.4638 133.356L90.576 133.702H90.9393H105.384L93.6981 142.192L93.4042 142.406L93.5164 142.751L97.9802 156.489L86.2939 147.999L86 147.785L85.7061 147.999L74.0198 156.489L78.4836 142.751L78.5958 142.406L78.3019 142.192L66.6156 133.702H81.0607H81.424L81.5362 133.356L86 119.618Z" stroke="#92BDFD"/>
<path d="M86 119.618L90.4638 133.356L90.576 133.702H90.9393H105.384L93.6981 142.192L93.4042 142.406L93.5164 142.751L97.9802 156.489L86.2939 147.999L86 147.785L85.7061 147.999L74.0198 156.489L78.4836 142.751L78.5958 142.406L78.3019 142.192L66.6156 133.702H81.0607H81.424L81.5362 133.356L86 119.618Z" stroke="#92BDFD"/>
<path d="M86 119.618L90.4638 133.356L90.576 133.702H90.9393H105.384L93.6981 142.192L93.4042 142.406L93.5164 142.751L97.9802 156.489L86.2939 147.999L86 147.785L85.7061 147.999L74.0198 156.489L78.4836 142.751L78.5958 142.406L78.3019 142.192L66.6156 133.702H81.0607H81.424L81.5362 133.356L86 119.618Z" stroke="#92BDFD"/>
<path d="M86 119.618L90.4638 133.356L90.576 133.702H90.9393H105.384L93.6981 142.192L93.4042 142.406L93.5164 142.751L97.9802 156.489L86.2939 147.999L86 147.785L85.7061 147.999L74.0198 156.489L78.4836 142.751L78.5958 142.406L78.3019 142.192L66.6156 133.702H81.0607H81.424L81.5362 133.356L86 119.618Z" stroke="#92BDFD"/>
<path d="M132 67.618L136.464 81.3561L136.576 81.7016H136.939H151.384L139.698 90.1922L139.404 90.4058L139.516 90.7513L143.98 104.489L132.294 95.9987L132 95.7852L131.706 95.9987L120.02 104.489L124.484 90.7513L124.596 90.4058L124.302 90.1922L112.616 81.7016H127.061H127.424L127.536 81.3561L132 67.618Z" fill="#8A2E39"/>
<path d="M132 67.618L136.464 81.3561L136.576 81.7016H136.939H151.384L139.698 90.1922L139.404 90.4058L139.516 90.7513L143.98 104.489L132.294 95.9987L132 95.7852L131.706 95.9987L120.02 104.489L124.484 90.7513L124.596 90.4058L124.302 90.1922L112.616 81.7016H127.061H127.424L127.536 81.3561L132 67.618Z" stroke="#92BDFD"/>
<path d="M132 67.618L136.464 81.3561L136.576 81.7016H136.939H151.384L139.698 90.1922L139.404 90.4058L139.516 90.7513L143.98 104.489L132.294 95.9987L132 95.7852L131.706 95.9987L120.02 104.489L124.484 90.7513L124.596 90.4058L124.302 90.1922L112.616 81.7016H127.061H127.424L127.536 81.3561L132 67.618Z" stroke="#92BDFD"/>
<path d="M132 67.618L136.464 81.3561L136.576 81.7016H136.939H151.384L139.698 90.1922L139.404 90.4058L139.516 90.7513L143.98 104.489L132.294 95.9987L132 95.7852L131.706 95.9987L120.02 104.489L124.484 90.7513L124.596 90.4058L124.302 90.1922L112.616 81.7016H127.061H127.424L127.536 81.3561L132 67.618Z" stroke="#92BDFD"/>
<path d="M132 67.618L136.464 81.3561L136.576 81.7016H136.939H151.384L139.698 90.1922L139.404 90.4058L139.516 90.7513L143.98 104.489L132.294 95.9987L132 95.7852L131.706 95.9987L120.02 104.489L124.484 90.7513L124.596 90.4058L124.302 90.1922L112.616 81.7016H127.061H127.424L127.536 81.3561L132 67.618Z" stroke="#92BDFD"/>
<path d="M282 311.618L286.464 325.356L286.576 325.702H286.939H301.384L289.698 334.192L289.404 334.406L289.516 334.751L293.98 348.489L282.294 339.999L282 339.785L281.706 339.999L270.02 348.489L274.484 334.751L274.596 334.406L274.302 334.192L262.616 325.702H277.061H277.424L277.536 325.356L282 311.618Z" fill="#8A2E39"/>
<path d="M282 311.618L286.464 325.356L286.576 325.702H286.939H301.384L289.698 334.192L289.404 334.406L289.516 334.751L293.98 348.489L282.294 339.999L282 339.785L281.706 339.999L270.02 348.489L274.484 334.751L274.596 334.406L274.302 334.192L262.616 325.702H277.061H277.424L277.536 325.356L282 311.618Z" stroke="#92BDFD"/>
<path d="M282 311.618L286.464 325.356L286.576 325.702H286.939H301.384L289.698 334.192L289.404 334.406L289.516 334.751L293.98 348.489L282.294 339.999L282 339.785L281.706 339.999L270.02 348.489L274.484 334.751L274.596 334.406L274.302 334.192L262.616 325.702H277.061H277.424L277.536 325.356L282 311.618Z" stroke="#92BDFD"/>
<path d="M282 311.618L286.464 325.356L286.576 325.702H286.939H301.384L289.698 334.192L289.404 334.406L289.516 334.751L293.98 348.489L282.294 339.999L282 339.785L281.706 339.999L270.02 348.489L274.484 334.751L274.596 334.406L274.302 334.192L262.616 325.702H277.061H277.424L277.536 325.356L282 311.618Z" stroke="#92BDFD"/>
<path d="M282 311.618L286.464 325.356L286.576 325.702H286.939H301.384L289.698 334.192L289.404 334.406L289.516 334.751L293.98 348.489L282.294 339.999L282 339.785L281.706 339.999L270.02 348.489L274.484 334.751L274.596 334.406L274.302 334.192L262.616 325.702H277.061H277.424L277.536 325.356L282 311.618Z" stroke="#92BDFD"/>
<path d="M336 260.618L340.464 274.356L340.576 274.702H340.939H355.384L343.698 283.192L343.404 283.406L343.516 283.751L347.98 297.489L336.294 288.999L336 288.785L335.706 288.999L324.02 297.489L328.484 283.751L328.596 283.406L328.302 283.192L316.616 274.702H331.061H331.424L331.536 274.356L336 260.618Z" fill="#8A2E39"/>
<path d="M336 260.618L340.464 274.356L340.576 274.702H340.939H355.384L343.698 283.192L343.404 283.406L343.516 283.751L347.98 297.489L336.294 288.999L336 288.785L335.706 288.999L324.02 297.489L328.484 283.751L328.596 283.406L328.302 283.192L316.616 274.702H331.061H331.424L331.536 274.356L336 260.618Z" stroke="#92BDFD"/>
<path d="M336 260.618L340.464 274.356L340.576 274.702H340.939H355.384L343.698 283.192L343.404 283.406L343.516 283.751L347.98 297.489L336.294 288.999L336 288.785L335.706 288.999L324.02 297.489L328.484 283.751L328.596 283.406L328.302 283.192L316.616 274.702H331.061H331.424L331.536 274.356L336 260.618Z" stroke="#92BDFD"/>
<path d="M336 260.618L340.464 274.356L340.576 274.702H340.939H355.384L343.698 283.192L343.404 283.406L343.516 283.751L347.98 297.489L336.294 288.999L336 288.785L335.706 288.999L324.02 297.489L328.484 283.751L328.596 283.406L328.302 283.192L316.616 274.702H331.061H331.424L331.536 274.356L336 260.618Z" stroke="#92BDFD"/>
<path d="M336 260.618L340.464 274.356L340.576 274.702H340.939H355.384L343.698 283.192L343.404 283.406L343.516 283.751L347.98 297.489L336.294 288.999L336 288.785L335.706 288.999L324.02 297.489L328.484 283.751L328.596 283.406L328.302 283.192L316.616 274.702H331.061H331.424L331.536 274.356L336 260.618Z" stroke="#92BDFD"/>
<path d="M336 119.618L340.464 133.356L340.576 133.702H340.939H355.384L343.698 142.192L343.404 142.406L343.516 142.751L347.98 156.489L336.294 147.999L336 147.785L335.706 147.999L324.02 156.489L328.484 142.751L328.596 142.406L328.302 142.192L316.616 133.702H331.061H331.424L331.536 133.356L336 119.618Z" fill="#8A2E39"/>
<path d="M336 119.618L340.464 133.356L340.576 133.702H340.939H355.384L343.698 142.192L343.404 142.406L343.516 142.751L347.98 156.489L336.294 147.999L336 147.785L335.706 147.999L324.02 156.489L328.484 142.751L328.596 142.406L328.302 142.192L316.616 133.702H331.061H331.424L331.536 133.356L336 119.618Z" stroke="#92BDFD"/>
<path d="M336 119.618L340.464 133.356L340.576 133.702H340.939H355.384L343.698 142.192L343.404 142.406L343.516 142.751L347.98 156.489L336.294 147.999L336 147.785L335.706 147.999L324.02 156.489L328.484 142.751L328.596 142.406L328.302 142.192L316.616 133.702H331.061H331.424L331.536 133.356L336 119.618Z" stroke="#92BDFD"/>
<path d="M336 119.618L340.464 133.356L340.576 133.702H340.939H355.384L343.698 142.192L343.404 142.406L343.516 142.751L347.98 156.489L336.294 147.999L336 147.785L335.706 147.999L324.02 156.489L328.484 142.751L328.596 142.406L328.302 142.192L316.616 133.702H331.061H331.424L331.536 133.356L336 119.618Z" stroke="#92BDFD"/>
<path d="M336 119.618L340.464 133.356L340.576 133.702H340.939H355.384L343.698 142.192L343.404 142.406L343.516 142.751L347.98 156.489L336.294 147.999L336 147.785L335.706 147.999L324.02 156.489L328.484 142.751L328.596 142.406L328.302 142.192L316.616 133.702H331.061H331.424L331.536 133.356L336 119.618Z" stroke="#92BDFD"/>
<path d="M292 67.618L296.464 81.3561L296.576 81.7016H296.939H311.384L299.698 90.1922L299.404 90.4058L299.516 90.7513L303.98 104.489L292.294 95.9987L292 95.7852L291.706 95.9987L280.02 104.489L284.484 90.7513L284.596 90.4058L284.302 90.1922L272.616 81.7016H287.061H287.424L287.536 81.3561L292 67.618Z" fill="#8A2E39"/>
<path d="M292 67.618L296.464 81.3561L296.576 81.7016H296.939H311.384L299.698 90.1922L299.404 90.4058L299.516 90.7513L303.98 104.489L292.294 95.9987L292 95.7852L291.706 95.9987L280.02 104.489L284.484 90.7513L284.596 90.4058L284.302 90.1922L272.616 81.7016H287.061H287.424L287.536 81.3561L292 67.618Z" stroke="#92BDFD"/>
<path d="M292 67.618L296.464 81.3561L296.576 81.7016H296.939H311.384L299.698 90.1922L299.404 90.4058L299.516 90.7513L303.98 104.489L292.294 95.9987L292 95.7852L291.706 95.9987L280.02 104.489L284.484 90.7513L284.596 90.4058L284.302 90.1922L272.616 81.7016H287.061H287.424L287.536 81.3561L292 67.618Z" stroke="#92BDFD"/>
<path d="M292 67.618L296.464 81.3561L296.576 81.7016H296.939H311.384L299.698 90.1922L299.404 90.4058L299.516 90.7513L303.98 104.489L292.294 95.9987L292 95.7852L291.706 95.9987L280.02 104.489L284.484 90.7513L284.596 90.4058L284.302 90.1922L272.616 81.7016H287.061H287.424L287.536 81.3561L292 67.618Z" stroke="#92BDFD"/>
<path d="M292 67.618L296.464 81.3561L296.576 81.7016H296.939H311.384L299.698 90.1922L299.404 90.4058L299.516 90.7513L303.98 104.489L292.294 95.9987L292 95.7852L291.706 95.9987L280.02 104.489L284.484 90.7513L284.596 90.4058L284.302 90.1922L272.616 81.7016H287.061H287.424L287.536 81.3561L292 67.618Z" stroke="#92BDFD"/>
<path d="M364 185.618L368.464 199.356L368.576 199.702H368.939H383.384L371.698 208.192L371.404 208.406L371.516 208.751L375.98 222.489L364.294 213.999L364 213.785L363.706 213.999L352.02 222.489L356.484 208.751L356.596 208.406L356.302 208.192L344.616 199.702H359.061H359.424L359.536 199.356L364 185.618Z" fill="#8A2E39"/>
<path d="M364 185.618L368.464 199.356L368.576 199.702H368.939H383.384L371.698 208.192L371.404 208.406L371.516 208.751L375.98 222.489L364.294 213.999L364 213.785L363.706 213.999L352.02 222.489L356.484 208.751L356.596 208.406L356.302 208.192L344.616 199.702H359.061H359.424L359.536 199.356L364 185.618Z" stroke="#92BDFD"/>
<path d="M364 185.618L368.464 199.356L368.576 199.702H368.939H383.384L371.698 208.192L371.404 208.406L371.516 208.751L375.98 222.489L364.294 213.999L364 213.785L363.706 213.999L352.02 222.489L356.484 208.751L356.596 208.406L356.302 208.192L344.616 199.702H359.061H359.424L359.536 199.356L364 185.618Z" stroke="#92BDFD"/>
<path d="M364 185.618L368.464 199.356L368.576 199.702H368.939H383.384L371.698 208.192L371.404 208.406L371.516 208.751L375.98 222.489L364.294 213.999L364 213.785L363.706 213.999L352.02 222.489L356.484 208.751L356.596 208.406L356.302 208.192L344.616 199.702H359.061H359.424L359.536 199.356L364 185.618Z" stroke="#92BDFD"/>
<path d="M364 185.618L368.464 199.356L368.576 199.702H368.939H383.384L371.698 208.192L371.404 208.406L371.516 208.751L375.98 222.489L364.294 213.999L364 213.785L363.706 213.999L352.02 222.489L356.484 208.751L356.596 208.406L356.302 208.192L344.616 199.702H359.061H359.424L359.536 199.356L364 185.618Z" stroke="#92BDFD"/>
<path d="M52 185.618L56.4638 199.356L56.576 199.702H56.9393H71.3844L59.6981 208.192L59.4042 208.406L59.5164 208.751L63.9802 222.489L52.2939 213.999L52 213.785L51.7061 213.999L40.0198 222.489L44.4836 208.751L44.5958 208.406L44.3019 208.192L32.6156 199.702H47.0607H47.424L47.5362 199.356L52 185.618Z" fill="#8A2E39"/>
<path d="M52 185.618L56.4638 199.356L56.576 199.702H56.9393H71.3844L59.6981 208.192L59.4042 208.406L59.5164 208.751L63.9802 222.489L52.2939 213.999L52 213.785L51.7061 213.999L40.0198 222.489L44.4836 208.751L44.5958 208.406L44.3019 208.192L32.6156 199.702H47.0607H47.424L47.5362 199.356L52 185.618Z" stroke="#92BDFD"/>
<path d="M52 185.618L56.4638 199.356L56.576 199.702H56.9393H71.3844L59.6981 208.192L59.4042 208.406L59.5164 208.751L63.9802 222.489L52.2939 213.999L52 213.785L51.7061 213.999L40.0198 222.489L44.4836 208.751L44.5958 208.406L44.3019 208.192L32.6156 199.702H47.0607H47.424L47.5362 199.356L52 185.618Z" stroke="#92BDFD"/>
<path d="M52 185.618L56.4638 199.356L56.576 199.702H56.9393H71.3844L59.6981 208.192L59.4042 208.406L59.5164 208.751L63.9802 222.489L52.2939 213.999L52 213.785L51.7061 213.999L40.0198 222.489L44.4836 208.751L44.5958 208.406L44.3019 208.192L32.6156 199.702H47.0607H47.424L47.5362 199.356L52 185.618Z" stroke="#92BDFD"/>
<path d="M52 185.618L56.4638 199.356L56.576 199.702H56.9393H71.3844L59.6981 208.192L59.4042 208.406L59.5164 208.751L63.9802 222.489L52.2939 213.999L52 213.785L51.7061 213.999L40.0198 222.489L44.4836 208.751L44.5958 208.406L44.3019 208.192L32.6156 199.702H47.0607H47.424L47.5362 199.356L52 185.618Z" stroke="#92BDFD"/>
<path d="M207 342.618L211.464 356.356L211.576 356.702H211.939H226.384L214.698 365.192L214.404 365.406L214.516 365.751L218.98 379.489L207.294 370.999L207 370.785L206.706 370.999L195.02 379.489L199.484 365.751L199.596 365.406L199.302 365.192L187.616 356.702H202.061H202.424L202.536 356.356L207 342.618Z" fill="#8A2E39"/>
<path d="M207 342.618L211.464 356.356L211.576 356.702H211.939H226.384L214.698 365.192L214.404 365.406L214.516 365.751L218.98 379.489L207.294 370.999L207 370.785L206.706 370.999L195.02 379.489L199.484 365.751L199.596 365.406L199.302 365.192L187.616 356.702H202.061H202.424L202.536 356.356L207 342.618Z" stroke="#92BDFD"/>
<path d="M207 342.618L211.464 356.356L211.576 356.702H211.939H226.384L214.698 365.192L214.404 365.406L214.516 365.751L218.98 379.489L207.294 370.999L207 370.785L206.706 370.999L195.02 379.489L199.484 365.751L199.596 365.406L199.302 365.192L187.616 356.702H202.061H202.424L202.536 356.356L207 342.618Z" stroke="#92BDFD"/>
<path d="M207 342.618L211.464 356.356L211.576 356.702H211.939H226.384L214.698 365.192L214.404 365.406L214.516 365.751L218.98 379.489L207.294 370.999L207 370.785L206.706 370.999L195.02 379.489L199.484 365.751L199.596 365.406L199.302 365.192L187.616 356.702H202.061H202.424L202.536 356.356L207 342.618Z" stroke="#92BDFD"/>
<path d="M207 342.618L211.464 356.356L211.576 356.702H211.939H226.384L214.698 365.192L214.404 365.406L214.516 365.751L218.98 379.489L207.294 370.999L207 370.785L206.706 370.999L195.02 379.489L199.484 365.751L199.596 365.406L199.302 365.192L187.616 356.702H202.061H202.424L202.536 356.356L207 342.618Z" stroke="#92BDFD"/>
<path d="M150.909 196.5C150.591 195.394 150.144 194.417 149.568 193.568C148.992 192.705 148.288 191.977 147.455 191.386C146.636 190.78 145.697 190.318 144.636 190C143.591 189.682 142.432 189.523 141.159 189.523C138.78 189.523 136.689 190.114 134.886 191.295C133.098 192.477 131.705 194.197 130.705 196.455C129.705 198.697 129.205 201.439 129.205 204.682C129.205 207.924 129.697 210.682 130.682 212.955C131.667 215.227 133.061 216.962 134.864 218.159C136.667 219.341 138.795 219.932 141.25 219.932C143.477 219.932 145.379 219.538 146.955 218.75C148.545 217.947 149.758 216.818 150.591 215.364C151.439 213.909 151.864 212.189 151.864 210.205L153.864 210.5H141.864V203.091H161.341V208.955C161.341 213.045 160.477 216.561 158.75 219.5C157.023 222.424 154.644 224.682 151.614 226.273C148.583 227.848 145.114 228.636 141.205 228.636C136.841 228.636 133.008 227.674 129.705 225.75C126.402 223.811 123.826 221.061 121.977 217.5C120.144 213.924 119.227 209.682 119.227 204.773C119.227 201 119.773 197.636 120.864 194.682C121.97 191.712 123.515 189.197 125.5 187.136C127.485 185.076 129.795 183.508 132.432 182.432C135.068 181.356 137.924 180.818 141 180.818C143.636 180.818 146.091 181.205 148.364 181.977C150.636 182.735 152.652 183.811 154.409 185.205C156.182 186.598 157.629 188.258 158.75 190.182C159.871 192.091 160.591 194.197 160.909 196.5H150.909ZM185.233 228H168.733V181.455H185.369C190.051 181.455 194.081 182.386 197.46 184.25C200.839 186.098 203.438 188.758 205.256 192.227C207.089 195.697 208.006 199.848 208.006 204.682C208.006 209.53 207.089 213.697 205.256 217.182C203.438 220.667 200.824 223.341 197.415 225.205C194.021 227.068 189.96 228 185.233 228ZM178.574 219.568H184.824C187.733 219.568 190.18 219.053 192.165 218.023C194.165 216.977 195.665 215.364 196.665 213.182C197.68 210.985 198.188 208.152 198.188 204.682C198.188 201.242 197.68 198.432 196.665 196.25C195.665 194.068 194.172 192.462 192.188 191.432C190.203 190.402 187.756 189.886 184.847 189.886H178.574V219.568ZM215.295 228V181.455H233.659C237.189 181.455 240.197 182.129 242.682 183.477C245.167 184.811 247.061 186.667 248.364 189.045C249.682 191.409 250.341 194.136 250.341 197.227C250.341 200.318 249.674 203.045 248.341 205.409C247.008 207.773 245.076 209.614 242.545 210.932C240.03 212.25 236.985 212.909 233.409 212.909H221.705V205.023H231.818C233.712 205.023 235.273 204.697 236.5 204.045C237.742 203.379 238.667 202.462 239.273 201.295C239.894 200.114 240.205 198.758 240.205 197.227C240.205 195.682 239.894 194.333 239.273 193.182C238.667 192.015 237.742 191.114 236.5 190.477C235.258 189.826 233.682 189.5 231.773 189.5H225.136V228H215.295ZM256.733 228V181.455H275.097C278.612 181.455 281.612 182.083 284.097 183.341C286.597 184.583 288.498 186.348 289.801 188.636C291.119 190.909 291.778 193.583 291.778 196.659C291.778 199.75 291.112 202.409 289.778 204.636C288.445 206.848 286.513 208.545 283.983 209.727C281.468 210.909 278.422 211.5 274.847 211.5H262.551V203.591H273.256C275.134 203.591 276.695 203.333 277.938 202.818C279.18 202.303 280.104 201.53 280.71 200.5C281.331 199.47 281.642 198.189 281.642 196.659C281.642 195.114 281.331 193.811 280.71 192.75C280.104 191.689 279.172 190.886 277.915 190.341C276.672 189.78 275.104 189.5 273.21 189.5H266.574V228H256.733ZM281.869 206.818L293.438 228H282.574L271.256 206.818H281.869Z" fill="white"/>
</svg>
